xof 0303txt 0032
template ColorRGBA {
 <35ff44e0-6c7c-11cf-8f52-0040333594a3>
 FLOAT red;
 FLOAT green;
 FLOAT blue;
 FLOAT alpha;
}

template ColorRGB {
 <d3e16e81-7835-11cf-8f52-0040333594a3>
 FLOAT red;
 FLOAT green;
 FLOAT blue;
}

template Material {
 <3d82ab4d-62da-11cf-ab39-0020af71e433>
 ColorRGBA faceColor;
 FLOAT power;
 ColorRGB specularColor;
 ColorRGB emissiveColor;
 [...]
}

template TextureFilename {
 <a42790e1-7810-11cf-8f52-0040333594a3>
 STRING filename;
}

template Frame {
 <3d82ab46-62da-11cf-ab39-0020af71e433>
 [...]
}

template Matrix4x4 {
 <f6f23f45-7686-11cf-8f52-0040333594a3>
 array FLOAT matrix[16];
}

template FrameTransformMatrix {
 <f6f23f41-7686-11cf-8f52-0040333594a3>
 Matrix4x4 frameMatrix;
}

template Vector {
 <3d82ab5e-62da-11cf-ab39-0020af71e433>
 FLOAT x;
 FLOAT y;
 FLOAT z;
}

template MeshFace {
 <3d82ab5f-62da-11cf-ab39-0020af71e433>
 DWORD nFaceVertexIndices;
 array DWORD faceVertexIndices[nFaceVertexIndices];
}

template Mesh {
 <3d82ab44-62da-11cf-ab39-0020af71e433>
 DWORD nVertices;
 array Vector vertices[nVertices];
 DWORD nFaces;
 array MeshFace faces[nFaces];
 [...]
}

template MeshNormals {
 <f6f23f43-7686-11cf-8f52-0040333594a3>
 DWORD nNormals;
 array Vector normals[nNormals];
 DWORD nFaceNormals;
 array MeshFace faceNormals[nFaceNormals];
}

template MeshMaterialList {
 <f6f23f42-7686-11cf-8f52-0040333594a3>
 DWORD nMaterials;
 DWORD nFaceIndexes;
 array DWORD faceIndexes[nFaceIndexes];
 [Material <3d82ab4d-62da-11cf-ab39-0020af71e433>]
}

template Coords2d {
 <f6f23f44-7686-11cf-8f52-0040333594a3>
 FLOAT u;
 FLOAT v;
}

template MeshTextureCoords {
 <f6f23f40-7686-11cf-8f52-0040333594a3>
 DWORD nTextureCoords;
 array Coords2d textureCoords[nTextureCoords];
}

template Animation {
 <3d82ab4f-62da-11cf-ab39-0020af71e433>
 [...]
}

template AnimationSet {
 <3d82ab50-62da-11cf-ab39-0020af71e433>
 [Animation <3d82ab4f-62da-11cf-ab39-0020af71e433>]
}

template FloatKeys {
 <10dd46a9-775b-11cf-8f52-0040333594a3>
 DWORD nValues;
 array FLOAT values[nValues];
}

template TimedFloatKeys {
 <f406b180-7b3b-11cf-8f52-0040333594a3>
 DWORD time;
 FloatKeys tfkeys;
}

template AnimationKey {
 <10dd46a8-775b-11cf-8f52-0040333594a3>
 DWORD keyType;
 DWORD nKeys;
 array TimedFloatKeys keys[nKeys];
}


Material PDX01_-_Default {
 1.000000;1.000000;1.000000;1.000000;;
 3.200000;
 0.000000;0.000000;0.000000;;
 0.000000;0.000000;0.000000;;

 TextureFilename {
  "T5rGf.bmp";
 }
}

Material PDX02_-_Default {
 1.000000;1.000000;1.000000;1.000000;;
 3.200000;
 0.000000;0.000000;0.000000;;
 0.000000;0.000000;0.000000;;

 TextureFilename {
  "Rock1D.bmp";
 }
}

Material PDX04_-_Default {
 1.000000;1.000000;1.000000;1.000000;;
 3.200000;
 0.000000;0.000000;0.000000;;
 0.000000;0.000000;0.000000;;

 TextureFilename {
  "Rock3D.bmp";
 }
}

Frame Cylinder001 {
 

 FrameTransformMatrix {
  1.000000,0.000000,0.000000,0.000000,0.000000,1.000000,0.000000,0.000000,0.000000,0.000000,1.000000,0.000000,221.486413,0.000000,90.949120,1.000000;;
 }

 Mesh  {
  303;
  76.190752;0.000000;0.000000;,
  71.595885;0.000000;26.058778;,
  58.365517;0.000000;48.974480;,
  38.095382;0.000000;65.983136;,
  13.230385;0.000000;75.033254;,
  -13.230393;0.000000;75.033267;,
  -38.095386;0.000000;65.983123;,
  -58.365510;0.000000;48.974486;,
  -71.595891;0.000000;26.058778;,
  -76.190765;0.000000;0.000023;,
  -71.595904;0.000000;-26.058755;,
  -58.365523;0.000000;-48.974458;,
  -38.095405;0.000000;-65.983123;,
  -13.230419;0.000000;-75.033248;,
  13.230350;0.000000;-75.033254;,
  38.095360;0.000000;-65.983155;,
  58.365491;0.000000;-48.974515;,
  71.595878;0.000000;-26.058827;,
  76.207322;6.799015;-0.000000;,
  71.611462;6.799017;26.064438;,
  58.378189;6.799017;48.985133;,
  38.103664;6.799015;65.997510;,
  13.233253;6.799017;75.049574;,
  -13.233271;6.799017;75.049574;,
  -38.103683;6.799018;65.997504;,
  -58.378208;6.799015;48.985149;,
  -71.611475;6.799014;26.064461;,
  -76.207347;6.799015;0.000023;,
  -71.611482;6.799018;-26.064422;,
  -58.378221;6.799014;-48.985114;,
  -38.103702;6.799017;-65.997472;,
  -13.233303;6.799015;-75.049574;,
  13.233230;6.799017;-75.049581;,
  38.103635;6.799017;-65.997510;,
  58.378163;6.799015;-48.985171;,
  71.611443;6.799017;-26.064491;,
  72.235731;14.065133;0.000004;,
  67.879392;14.065130;24.706093;,
  55.335795;14.065133;46.432259;,
  36.117882;14.065133;62.558029;,
  12.543602;14.065130;71.138330;,
  -12.543614;14.065134;71.138349;,
  -36.117882;14.065130;62.558003;,
  -55.335795;14.065128;46.432250;,
  -67.879405;14.065133;24.706093;,
  -72.235757;14.065133;0.000023;,
  -67.879411;14.065133;-24.706053;,
  -55.335814;14.065130;-46.432221;,
  -36.117904;14.065130;-62.557984;,
  -12.543644;14.065130;-71.138330;,
  12.543568;14.065130;-71.138336;,
  36.117859;14.065130;-62.558016;,
  55.335763;14.065133;-46.432278;,
  67.879379;14.065128;-24.706125;,
  68.151642;23.800093;0.000004;,
  64.041581;23.800093;24.295891;,
  52.207178;23.800093;45.661318;,
  34.075821;23.800099;61.519347;,
  11.834404;23.800094;69.957210;,
  -11.834415;23.800096;69.957229;,
  -34.075827;23.800091;61.519328;,
  -52.207184;23.800094;45.661357;,
  -64.041594;23.800093;24.295886;,
  -68.151642;23.800094;0.000023;,
  -64.041600;23.800094;-24.295867;,
  -52.207200;23.800094;-45.661296;,
  -34.075843;23.800093;-61.519309;,
  -11.834438;23.800094;-69.957190;,
  11.834381;23.800094;-69.957197;,
  34.075792;23.800094;-61.519347;,
  52.207162;23.800093;-45.661350;,
  64.041587;23.800094;-24.295922;,
  63.013517;30.294970;0.000000;,
  59.213325;30.294976;21.551910;,
  48.271165;30.294973;40.504330;,
  31.506768;30.294976;54.571322;,
  10.942166;30.294976;62.056218;,
  -10.942196;30.294976;62.056230;,
  -31.506778;30.294966;54.571296;,
  -48.271168;30.294982;40.504330;,
  -59.213350;30.294979;21.551918;,
  -63.013536;30.294973;0.000015;,
  -59.213357;30.294979;-21.551883;,
  -48.271184;30.294976;-40.504307;,
  -31.506794;30.294973;-54.571309;,
  -10.942215;30.294966;-62.056218;,
  10.942150;30.294973;-62.056224;,
  31.506730;30.294973;-54.571341;,
  48.271142;30.294979;-40.504349;,
  59.213331;30.294976;-21.551934;,
  57.084243;38.119008;0.000012;,
  53.641648;38.119008;19.523979;,
  43.729082;38.119008;36.693078;,
  28.542138;38.119008;49.436438;,
  9.912574;38.118998;56.217043;,
  -9.912578;38.119011;56.217050;,
  -28.542134;38.118998;49.436438;,
  -43.729082;38.119008;36.693107;,
  -53.641658;38.119014;19.523987;,
  -57.084256;38.119011;0.000027;,
  -53.641658;38.119018;-19.523941;,
  -43.729091;38.119008;-36.693030;,
  -28.542147;38.119005;-49.436400;,
  -9.912602;38.119008;-56.217011;,
  9.912552;38.119008;-56.217018;,
  28.542115;38.119008;-49.436429;,
  43.729066;38.119008;-36.693072;,
  53.641648;38.119008;-19.523995;,
  50.626595;51.119286;0.000004;,
  47.573418;51.119293;18.753528;,
  38.782211;51.119293;35.245110;,
  25.313301;51.119296;47.485587;,
  8.791202;51.119293;53.998611;,
  -8.791230;51.119296;53.998611;,
  -25.313307;51.119293;47.485587;,
  -38.782230;51.119274;35.245094;,
  -47.573443;51.119293;18.753528;,
  -50.626602;51.119293;0.000016;,
  -47.573450;51.119296;-18.753507;,
  -38.782243;51.119283;-35.245075;,
  -25.313320;51.119296;-47.485568;,
  -8.791241;51.119286;-53.998605;,
  8.791183;51.119293;-53.998611;,
  25.313262;51.119296;-47.485597;,
  38.782189;51.119293;-35.245110;,
  47.573411;51.119296;-18.753554;,
  43.903395;63.209933;0.000011;,
  41.255683;63.209933;15.015861;,
  33.631942;63.209933;28.220573;,
  21.951706;63.209933;38.021475;,
  7.623738;63.209933;43.236413;,
  -7.623745;63.209939;43.236419;,
  -21.951706;63.209946;38.021469;,
  -33.631949;63.209920;28.220566;,
  -41.255699;63.209920;15.015861;,
  -43.903395;63.209933;0.000027;,
  -41.255696;63.209933;-15.015830;,
  -33.631965;63.209920;-28.220538;,
  -21.951712;63.209952;-38.021440;,
  -7.623768;63.209933;-43.236397;,
  7.623726;63.209939;-43.236400;,
  21.951683;63.209939;-38.021462;,
  33.631949;63.209939;-28.220573;,
  41.255683;63.209933;-15.015866;,
  38.955059;76.763283;0.000015;,
  36.605782;76.763290;13.323436;,
  29.841312;76.763290;25.039846;,
  19.477530;76.763290;33.736106;,
  6.764469;76.763290;38.363254;,
  -6.764477;76.763296;38.363261;,
  -19.477536;76.763290;33.736080;,
  -29.841312;76.763290;25.039854;,
  -36.605792;76.763290;13.323436;,
  -38.955066;76.763296;0.000023;,
  -36.605789;76.763296;-13.323396;,
  -29.841328;76.763283;-25.039824;,
  -19.477539;76.763258;-33.736061;,
  -6.764497;76.763290;-38.363238;,
  6.764458;76.763290;-38.363248;,
  19.477520;76.763290;-33.736077;,
  29.841312;76.763296;-25.039840;,
  36.605782;76.763290;-13.323432;,
  30.711539;91.945280;0.000011;,
  28.859405;91.945280;10.503982;,
  23.526405;91.945280;19.741013;,
  15.355774;91.945280;26.597000;,
  5.332996;91.945280;30.244973;,
  -5.333000;91.945280;30.244989;,
  -15.355774;91.945254;26.596978;,
  -23.526410;91.945280;19.741005;,
  -28.859418;91.945280;10.503982;,
  -30.711546;91.945280;0.000023;,
  -28.859414;91.945306;-10.503944;,
  -23.526419;91.945280;-19.740978;,
  -15.355774;91.945254;-26.596962;,
  -5.333019;91.945280;-30.244957;,
  5.332985;91.945299;-30.244960;,
  15.355758;91.945280;-26.596973;,
  23.526398;91.945280;-19.741005;,
  28.859398;91.945293;-10.503975;,
  6.258109;203.216141;0.000003;,
  5.880700;203.216166;2.140406;,
  4.793991;203.216154;4.022642;,
  3.129056;203.216166;5.419691;,
  1.086709;203.216166;6.163045;,
  -1.086707;203.216205;6.163047;,
  -3.129060;203.216154;5.419689;,
  -4.793994;203.216166;4.022646;,
  -5.880704;203.216154;2.140410;,
  -6.258110;203.216166;0.000009;,
  -5.880700;203.216205;-2.140389;,
  -4.793998;203.216154;-4.022632;,
  -3.129062;203.216154;-5.419677;,
  -1.086715;203.216166;-6.163030;,
  1.086705;203.216166;-6.163030;,
  3.129056;203.216166;-5.419680;,
  4.793995;203.216205;-4.022632;,
  5.880700;203.216166;-2.140395;,
  -25.408138;106.900403;0.000015;,
  -23.875842;106.900403;8.690113;,
  -19.463776;106.900397;16.332046;,
  -12.704071;106.900422;22.004098;,
  -4.412079;106.900422;25.022149;,
  4.412071;106.900397;25.022133;,
  12.704063;106.900422;22.004098;,
  19.463760;106.900403;16.332054;,
  23.875832;106.900397;8.690106;,
  25.408126;106.900403;0.000004;,
  23.875840;106.900422;-8.690102;,
  19.463760;106.900403;-16.332038;,
  12.704056;106.900397;-22.004093;,
  4.412064;106.900397;-25.022122;,
  -4.412098;106.900384;-25.022123;,
  -12.704071;106.900429;-22.004074;,
  -19.463776;106.900397;-16.332024;,
  -23.875837;106.900429;-8.690075;,
  -16.038741;128.463526;0.000014;,
  -15.071493;128.463501;5.485587;,
  -12.286387;128.463552;10.309502;,
  -8.019363;128.463514;13.889976;,
  -2.785093;128.463526;15.795088;,
  2.785095;128.463514;15.795082;,
  8.019376;128.463526;13.889970;,
  12.286385;128.463514;10.309508;,
  15.071474;128.463526;5.485580;,
  16.038725;128.463526;0.000005;,
  15.071480;128.463526;-5.485571;,
  12.286385;128.463526;-10.309502;,
  8.019359;128.463526;-13.889950;,
  2.785089;128.463526;-15.795067;,
  -2.785105;128.463488;-15.795067;,
  -8.019357;128.463526;-13.889938;,
  -12.286397;128.463526;-10.309498;,
  -15.071483;128.463526;-5.485549;,
  -9.025070;157.283930;3.284860;,
  -7.357299;157.283968;6.173511;,
  -4.802134;157.283968;8.317565;,
  -1.667761;157.283968;9.458376;,
  1.667761;157.283968;9.458368;,
  4.802138;157.283955;8.317552;,
  7.357300;157.283955;6.173516;,
  9.025062;157.283955;3.284863;,
  9.604266;157.283994;0.000005;,
  9.025062;157.283968;-3.284852;,
  7.357300;157.283930;-6.173500;,
  4.802138;157.283968;-8.317538;,
  1.667761;157.283968;-9.458357;,
  -1.667769;157.283968;-9.458355;,
  -4.802134;157.283981;-8.317528;,
  -7.357302;157.283955;-6.173497;,
  -9.025060;157.283981;-3.284841;,
  -9.604277;157.283968;0.000011;,
  -7.812062;180.904755;2.843366;,
  -6.368457;180.904755;5.343773;,
  -4.156704;180.904730;7.199630;,
  -1.443607;180.904781;8.187131;,
  1.443605;180.904742;8.187122;,
  4.156701;180.904742;7.199638;,
  6.368444;180.904742;5.343768;,
  7.812052;180.904742;2.843363;,
  8.313406;180.904742;0.000011;,
  7.812047;180.904755;-2.843349;,
  6.368444;180.904755;-5.343751;,
  4.156701;180.904755;-7.199618;,
  1.443602;180.904730;-8.187104;,
  -1.443612;180.904755;-8.187106;,
  -4.156704;180.904755;-7.199618;,
  -6.368457;180.904730;-5.343751;,
  -7.812054;180.904768;-2.843347;,
  -8.313417;180.904755;0.000014;,
  -13.230393;0.000000;75.033267;,
  -13.233271;6.799017;75.049574;,
  -12.543614;14.065134;71.138349;,
  -11.834415;23.800096;69.957229;,
  -10.942196;30.294976;62.056230;,
  -9.912578;38.119011;56.217050;,
  -8.791230;51.119296;53.998611;,
  -7.623745;63.209939;43.236419;,
  -6.764477;76.763296;38.363261;,
  -5.333000;91.945280;30.244989;,
  -4.412079;106.900422;25.022149;,
  -2.785093;128.463526;15.795088;,
  -1.667761;157.283968;9.458376;,
  -1.443607;180.904781;8.187131;,
  5.880700;203.216166;2.140406;,
  6.258109;203.216141;0.000003;,
  4.793991;203.216154;4.022642;,
  3.129056;203.216166;5.419691;,
  1.086709;203.216166;6.163045;,
  -1.086707;203.216205;6.163047;,
  -3.129060;203.216154;5.419689;,
  -1.086707;203.216205;6.163047;,
  -4.793994;203.216166;4.022646;,
  -5.880704;203.216154;2.140410;,
  -6.258110;203.216166;0.000009;,
  -5.880700;203.216205;-2.140389;,
  -4.793998;203.216154;-4.022632;,
  -3.129062;203.216154;-5.419677;,
  -1.086715;203.216166;-6.163030;,
  1.086705;203.216166;-6.163030;,
  3.129056;203.216166;-5.419680;,
  4.793995;203.216205;-4.022632;,
  5.880700;203.216166;-2.140395;;
  520;
  3;0,19,1;,
  3;19,0,18;,
  3;1,20,2;,
  3;20,1,19;,
  3;2,21,3;,
  3;21,2,20;,
  3;3,22,4;,
  3;22,3,21;,
  3;4,23,5;,
  3;23,4,22;,
  3;270,24,6;,
  3;24,270,271;,
  3;6,25,7;,
  3;25,6,24;,
  3;7,26,8;,
  3;26,7,25;,
  3;8,27,9;,
  3;27,8,26;,
  3;9,28,10;,
  3;28,9,27;,
  3;10,29,11;,
  3;29,10,28;,
  3;11,30,12;,
  3;30,11,29;,
  3;12,31,13;,
  3;31,12,30;,
  3;13,32,14;,
  3;32,13,31;,
  3;14,33,15;,
  3;33,14,32;,
  3;15,34,16;,
  3;34,15,33;,
  3;16,35,17;,
  3;35,16,34;,
  3;17,18,0;,
  3;18,17,35;,
  3;18,37,19;,
  3;37,18,36;,
  3;19,38,20;,
  3;38,19,37;,
  3;20,39,21;,
  3;39,20,38;,
  3;21,40,22;,
  3;40,21,39;,
  3;22,41,23;,
  3;41,22,40;,
  3;271,42,24;,
  3;42,271,272;,
  3;24,43,25;,
  3;43,24,42;,
  3;25,44,26;,
  3;44,25,43;,
  3;26,45,27;,
  3;45,26,44;,
  3;27,46,28;,
  3;46,27,45;,
  3;28,47,29;,
  3;47,28,46;,
  3;29,48,30;,
  3;48,29,47;,
  3;30,49,31;,
  3;49,30,48;,
  3;31,50,32;,
  3;50,31,49;,
  3;32,51,33;,
  3;51,32,50;,
  3;33,52,34;,
  3;52,33,51;,
  3;34,53,35;,
  3;53,34,52;,
  3;35,36,18;,
  3;36,35,53;,
  3;36,55,37;,
  3;55,36,54;,
  3;37,56,38;,
  3;56,37,55;,
  3;38,57,39;,
  3;57,38,56;,
  3;39,58,40;,
  3;58,39,57;,
  3;40,59,41;,
  3;59,40,58;,
  3;272,60,42;,
  3;60,272,273;,
  3;42,61,43;,
  3;61,42,60;,
  3;43,62,44;,
  3;62,43,61;,
  3;44,63,45;,
  3;63,44,62;,
  3;45,64,46;,
  3;64,45,63;,
  3;46,65,47;,
  3;65,46,64;,
  3;47,66,48;,
  3;66,47,65;,
  3;48,67,49;,
  3;67,48,66;,
  3;49,68,50;,
  3;68,49,67;,
  3;50,69,51;,
  3;69,50,68;,
  3;51,70,52;,
  3;70,51,69;,
  3;52,71,53;,
  3;71,52,70;,
  3;53,54,36;,
  3;54,53,71;,
  3;54,73,55;,
  3;73,54,72;,
  3;55,74,56;,
  3;74,55,73;,
  3;56,75,57;,
  3;75,56,74;,
  3;57,76,58;,
  3;76,57,75;,
  3;58,77,59;,
  3;77,58,76;,
  3;273,78,60;,
  3;78,273,274;,
  3;60,79,61;,
  3;79,60,78;,
  3;61,80,62;,
  3;80,61,79;,
  3;62,81,63;,
  3;81,62,80;,
  3;63,82,64;,
  3;82,63,81;,
  3;64,83,65;,
  3;83,64,82;,
  3;65,84,66;,
  3;84,65,83;,
  3;66,85,67;,
  3;85,66,84;,
  3;67,86,68;,
  3;86,67,85;,
  3;68,87,69;,
  3;87,68,86;,
  3;69,88,70;,
  3;88,69,87;,
  3;70,89,71;,
  3;89,70,88;,
  3;71,72,54;,
  3;72,71,89;,
  3;72,91,73;,
  3;91,72,90;,
  3;73,92,74;,
  3;92,73,91;,
  3;74,93,75;,
  3;93,74,92;,
  3;75,94,76;,
  3;94,75,93;,
  3;76,95,77;,
  3;95,76,94;,
  3;274,96,78;,
  3;96,274,275;,
  3;78,97,79;,
  3;97,78,96;,
  3;79,98,80;,
  3;98,79,97;,
  3;80,99,81;,
  3;99,80,98;,
  3;81,100,82;,
  3;100,81,99;,
  3;82,101,83;,
  3;101,82,100;,
  3;83,102,84;,
  3;102,83,101;,
  3;84,103,85;,
  3;103,84,102;,
  3;85,104,86;,
  3;104,85,103;,
  3;86,105,87;,
  3;105,86,104;,
  3;87,106,88;,
  3;106,87,105;,
  3;88,107,89;,
  3;107,88,106;,
  3;89,90,72;,
  3;90,89,107;,
  3;90,109,91;,
  3;109,90,108;,
  3;91,110,92;,
  3;110,91,109;,
  3;92,111,93;,
  3;111,92,110;,
  3;93,112,94;,
  3;112,93,111;,
  3;94,113,95;,
  3;113,94,112;,
  3;275,114,96;,
  3;114,275,276;,
  3;96,115,97;,
  3;115,96,114;,
  3;97,116,98;,
  3;116,97,115;,
  3;98,117,99;,
  3;117,98,116;,
  3;99,118,100;,
  3;118,99,117;,
  3;100,119,101;,
  3;119,100,118;,
  3;101,120,102;,
  3;120,101,119;,
  3;102,121,103;,
  3;121,102,120;,
  3;103,122,104;,
  3;122,103,121;,
  3;104,123,105;,
  3;123,104,122;,
  3;105,124,106;,
  3;124,105,123;,
  3;106,125,107;,
  3;125,106,124;,
  3;107,108,90;,
  3;108,107,125;,
  3;108,127,109;,
  3;127,108,126;,
  3;109,128,110;,
  3;128,109,127;,
  3;110,129,111;,
  3;129,110,128;,
  3;111,130,112;,
  3;130,111,129;,
  3;112,131,113;,
  3;131,112,130;,
  3;276,132,114;,
  3;132,276,277;,
  3;114,133,115;,
  3;133,114,132;,
  3;115,134,116;,
  3;134,115,133;,
  3;116,135,117;,
  3;135,116,134;,
  3;117,136,118;,
  3;136,117,135;,
  3;118,137,119;,
  3;137,118,136;,
  3;119,138,120;,
  3;138,119,137;,
  3;120,139,121;,
  3;139,120,138;,
  3;121,140,122;,
  3;140,121,139;,
  3;122,141,123;,
  3;141,122,140;,
  3;123,142,124;,
  3;142,123,141;,
  3;124,143,125;,
  3;143,124,142;,
  3;125,126,108;,
  3;126,125,143;,
  3;126,145,127;,
  3;145,126,144;,
  3;127,146,128;,
  3;146,127,145;,
  3;128,147,129;,
  3;147,128,146;,
  3;129,148,130;,
  3;148,129,147;,
  3;130,149,131;,
  3;149,130,148;,
  3;277,150,132;,
  3;150,277,278;,
  3;132,151,133;,
  3;151,132,150;,
  3;133,152,134;,
  3;152,133,151;,
  3;134,153,135;,
  3;153,134,152;,
  3;135,154,136;,
  3;154,135,153;,
  3;136,155,137;,
  3;155,136,154;,
  3;137,156,138;,
  3;156,137,155;,
  3;138,157,139;,
  3;157,138,156;,
  3;139,158,140;,
  3;158,139,157;,
  3;140,159,141;,
  3;159,140,158;,
  3;141,160,142;,
  3;160,141,159;,
  3;142,161,143;,
  3;161,142,160;,
  3;143,144,126;,
  3;144,143,161;,
  3;144,163,145;,
  3;163,144,162;,
  3;145,164,146;,
  3;164,145,163;,
  3;146,165,147;,
  3;165,146,164;,
  3;147,166,148;,
  3;166,147,165;,
  3;148,167,149;,
  3;167,148,166;,
  3;278,168,150;,
  3;168,278,279;,
  3;150,169,151;,
  3;169,150,168;,
  3;151,170,152;,
  3;170,151,169;,
  3;152,171,153;,
  3;171,152,170;,
  3;153,172,154;,
  3;172,153,171;,
  3;154,173,155;,
  3;173,154,172;,
  3;155,174,156;,
  3;174,155,173;,
  3;156,175,157;,
  3;175,156,174;,
  3;157,176,158;,
  3;176,157,175;,
  3;158,177,159;,
  3;177,158,176;,
  3;159,178,160;,
  3;178,159,177;,
  3;160,179,161;,
  3;179,160,178;,
  3;161,162,144;,
  3;162,161,179;,
  3;163,207,206;,
  3;207,163,162;,
  3;164,206,205;,
  3;206,164,163;,
  3;165,205,204;,
  3;205,165,164;,
  3;166,204,203;,
  3;204,166,165;,
  3;167,203,202;,
  3;203,167,166;,
  3;168,280,201;,
  3;280,168,279;,
  3;169,201,200;,
  3;201,169,168;,
  3;170,200,199;,
  3;200,170,169;,
  3;171,199,198;,
  3;199,171,170;,
  3;172,198,215;,
  3;198,172,171;,
  3;173,215,214;,
  3;215,173,172;,
  3;174,214,213;,
  3;214,174,173;,
  3;175,213,212;,
  3;213,175,174;,
  3;176,212,211;,
  3;212,176,175;,
  3;177,211,210;,
  3;211,177,176;,
  3;178,210,209;,
  3;210,178,177;,
  3;179,209,208;,
  3;209,179,178;,
  3;162,208,207;,
  3;208,162,179;,
  3;181,183,182;,
  3;183,185,184;,
  3;185,187,186;,
  3;183,187,185;,
  3;187,189,188;,
  3;189,191,190;,
  3;187,191,189;,
  3;191,193,192;,
  3;193,195,194;,
  3;191,195,193;,
  3;187,195,191;,
  3;183,195,187;,
  3;195,197,196;,
  3;183,197,195;,
  3;181,197,183;,
  3;180,197,181;,
  3;224,207,225;,
  3;207,224,206;,
  3;223,206,224;,
  3;206,223,205;,
  3;222,205,223;,
  3;205,222,204;,
  3;221,204,222;,
  3;204,221,203;,
  3;220,203,221;,
  3;203,220,202;,
  3;219,280,281;,
  3;280,219,201;,
  3;218,201,219;,
  3;201,218,200;,
  3;217,200,218;,
  3;200,217,199;,
  3;216,199,217;,
  3;199,216,198;,
  3;233,198,216;,
  3;198,233,215;,
  3;232,215,233;,
  3;215,232,214;,
  3;231,214,232;,
  3;214,231,213;,
  3;230,213,231;,
  3;213,230,212;,
  3;229,212,230;,
  3;212,229,211;,
  3;228,211,229;,
  3;211,228,210;,
  3;227,210,228;,
  3;210,227,209;,
  3;226,209,227;,
  3;209,226,208;,
  3;225,208,226;,
  3;208,225,207;,
  3;241,225,242;,
  3;225,241,224;,
  3;240,224,241;,
  3;224,240,223;,
  3;239,223,240;,
  3;223,239,222;,
  3;238,222,239;,
  3;222,238,221;,
  3;237,221,238;,
  3;221,237,220;,
  3;236,281,282;,
  3;281,236,219;,
  3;235,219,236;,
  3;219,235,218;,
  3;234,218,235;,
  3;218,234,217;,
  3;251,217,234;,
  3;217,251,216;,
  3;250,216,251;,
  3;216,250,233;,
  3;249,233,250;,
  3;233,249,232;,
  3;248,232,249;,
  3;232,248,231;,
  3;247,231,248;,
  3;231,247,230;,
  3;246,230,247;,
  3;230,246,229;,
  3;245,229,246;,
  3;229,245,228;,
  3;244,228,245;,
  3;228,244,227;,
  3;243,227,244;,
  3;227,243,226;,
  3;242,226,243;,
  3;226,242,225;,
  3;259,242,260;,
  3;242,259,241;,
  3;258,241,259;,
  3;241,258,240;,
  3;257,240,258;,
  3;240,257,239;,
  3;256,239,257;,
  3;239,256,238;,
  3;255,238,256;,
  3;238,255,237;,
  3;254,282,283;,
  3;282,254,236;,
  3;253,236,254;,
  3;236,253,235;,
  3;252,235,253;,
  3;235,252,234;,
  3;269,234,252;,
  3;234,269,251;,
  3;268,251,269;,
  3;251,268,250;,
  3;267,250,268;,
  3;250,267,249;,
  3;266,249,267;,
  3;249,266,248;,
  3;265,248,266;,
  3;248,265,247;,
  3;264,247,265;,
  3;247,264,246;,
  3;263,246,264;,
  3;246,263,245;,
  3;262,245,263;,
  3;245,262,244;,
  3;261,244,262;,
  3;244,261,243;,
  3;260,243,261;,
  3;243,260,242;,
  3;284,260,285;,
  3;260,284,259;,
  3;286,259,284;,
  3;259,286,258;,
  3;287,258,286;,
  3;258,287,257;,
  3;288,257,287;,
  3;257,288,256;,
  3;289,256,288;,
  3;256,289,255;,
  3;290,283,291;,
  3;283,290,254;,
  3;292,254,290;,
  3;254,292,253;,
  3;293,253,292;,
  3;253,293,252;,
  3;294,252,293;,
  3;252,294,269;,
  3;295,269,294;,
  3;269,295,268;,
  3;296,268,295;,
  3;268,296,267;,
  3;297,267,296;,
  3;267,297,266;,
  3;298,266,297;,
  3;266,298,265;,
  3;299,265,298;,
  3;265,299,264;,
  3;300,264,299;,
  3;264,300,263;,
  3;301,263,300;,
  3;263,301,262;,
  3;302,262,301;,
  3;262,302,261;,
  3;285,261,302;,
  3;261,285,260;;

  MeshNormals  {
   288;
   0.999997;-0.002437;-0.000000;,
   0.912227;0.240006;0.332023;,
   0.939690;-0.002438;0.342019;,
   0.970771;0.240007;-0.000000;,
   0.743654;0.240007;0.624000;,
   0.766043;-0.002435;0.642785;,
   0.485385;0.240005;0.840713;,
   0.499998;-0.002440;0.866023;,
   0.168572;0.240006;0.956023;,
   0.173648;-0.002437;0.984805;,
   -0.168573;0.240006;0.956023;,
   -0.173647;-0.002437;0.984805;,
   -0.485386;0.240005;0.840713;,
   -0.499999;-0.002442;0.866023;,
   -0.743654;0.240006;0.624000;,
   -0.766042;-0.002439;0.642786;,
   -0.912227;0.240006;0.332024;,
   -0.939690;-0.002439;0.342019;,
   -0.970771;0.240006;0.000000;,
   -0.999997;-0.002438;0.000000;,
   -0.912227;0.240006;-0.332023;,
   -0.939690;-0.002438;-0.342019;,
   -0.743654;0.240006;-0.624000;,
   -0.766042;-0.002438;-0.642785;,
   -0.485386;0.240006;-0.840712;,
   -0.499999;-0.002438;-0.866023;,
   -0.168573;0.240006;-0.956023;,
   -0.173648;-0.002439;-0.984805;,
   0.168572;0.240006;-0.956023;,
   0.173647;-0.002438;-0.984805;,
   0.485385;0.240006;-0.840713;,
   0.499998;-0.002437;-0.866023;,
   0.743653;0.240007;-0.624000;,
   0.766042;-0.002436;-0.642786;,
   0.912226;0.240007;-0.332024;,
   0.939690;-0.002436;-0.342019;,
   0.854426;0.421514;0.303780;,
   0.900335;0.435197;-0.001072;,
   0.712579;0.387213;0.585062;,
   0.476652;0.345244;0.808461;,
   0.167304;0.316856;0.933601;,
   -0.169638;0.318979;0.932457;,
   -0.477151;0.350293;0.805991;,
   -0.710973;0.392329;0.583606;,
   -0.852620;0.424486;0.304714;,
   -0.900334;0.435198;0.001072;,
   -0.854426;0.421514;-0.303780;,
   -0.712578;0.387214;-0.585062;,
   -0.476652;0.345244;-0.808461;,
   -0.167305;0.316857;-0.933601;,
   0.169637;0.318980;-0.932456;,
   0.477151;0.350293;-0.805991;,
   0.710972;0.392329;-0.583607;,
   0.852621;0.424485;-0.304715;,
   0.810906;0.504080;0.297212;,
   0.864885;0.501970;-0.000434;,
   0.661824;0.499096;0.559368;,
   0.434663;0.484870;0.758927;,
   0.151353;0.471036;0.869032;,
   -0.153044;0.468441;0.870139;,
   -0.436883;0.477879;0.762079;,
   -0.665161;0.490532;0.562974;,
   -0.813801;0.498210;0.299191;,
   -0.864885;0.501970;0.000435;,
   -0.810906;0.504080;-0.297212;,
   -0.661824;0.499096;-0.559368;,
   -0.434663;0.484869;-0.758927;,
   -0.151353;0.471037;-0.869032;,
   0.153043;0.468441;-0.870139;,
   0.436882;0.477879;-0.762080;,
   0.665160;0.490532;-0.562974;,
   0.813801;0.498210;-0.299192;,
   0.736168;0.624597;0.260643;,
   0.789701;0.613491;0.001270;,
   0.587332;0.652654;0.478628;,
   0.373872;0.681643;0.628953;,
   0.128234;0.699199;0.703333;,
   -0.126019;0.700287;0.702650;,
   -0.371042;0.684521;0.627503;,
   -0.584769;0.656053;0.477116;,
   -0.735007;0.626795;0.258637;,
   -0.789702;0.613490;-0.001270;,
   -0.736168;0.624597;-0.260643;,
   -0.587331;0.652654;-0.478627;,
   -0.373872;0.681644;-0.628953;,
   -0.128235;0.699199;-0.703332;,
   0.126018;0.700287;-0.702650;,
   0.371041;0.684521;-0.627502;,
   0.584769;0.656053;-0.477116;,
   0.735006;0.626795;-0.258637;,
   0.807480;0.516266;0.285386;,
   0.847929;0.530108;-0.001519;,
   0.678309;0.482527;0.554134;,
   0.457393;0.440872;0.772285;,
   0.160932;0.412872;0.896458;,
   -0.164354;0.416432;0.894188;,
   -0.457406;0.449156;0.767489;,
   -0.674856;0.490658;0.551202;,
   -0.804131;0.520867;0.286478;,
   -0.847929;0.530108;0.001519;,
   -0.807480;0.516266;-0.285386;,
   -0.678309;0.482528;-0.554133;,
   -0.457394;0.440872;-0.772284;,
   -0.160932;0.412872;-0.896458;,
   0.164354;0.416432;-0.894188;,
   0.457405;0.449156;-0.767489;,
   0.674857;0.490658;-0.551202;,
   0.804131;0.520868;-0.286478;,
   0.832597;0.468183;0.295950;,
   0.885661;0.464332;-0.000647;,
   0.685157;0.463241;0.562111;,
   0.454100;0.447180;0.770599;,
   0.158759;0.430387;0.888573;,
   -0.161488;0.425471;0.890447;,
   -0.457738;0.434024;0.775950;,
   -0.690708;0.447403;0.568113;,
   -0.837366;0.457550;0.299108;,
   -0.885661;0.464332;0.000647;,
   -0.832597;0.468183;-0.295950;,
   -0.685157;0.463240;-0.562111;,
   -0.454101;0.447180;-0.770599;,
   -0.158759;0.430387;-0.888574;,
   0.161487;0.425471;-0.890447;,
   0.457737;0.434024;-0.775951;,
   0.690708;0.447402;-0.568114;,
   0.837366;0.457550;-0.299109;,
   0.850210;0.431435;0.301675;,
   0.907239;0.420611;0.001961;,
   0.687280;0.462461;0.560157;,
   0.443713;0.497426;0.745444;,
   0.153715;0.520499;0.839912;,
   -0.150166;0.523119;0.838926;,
   -0.439481;0.504228;0.743378;,
   -0.683768;0.470275;0.557945;,
   -0.848766;0.436404;0.298578;,
   -0.907239;0.420612;-0.001961;,
   -0.850210;0.431435;-0.301674;,
   -0.687280;0.462461;-0.560157;,
   -0.443713;0.497426;-0.745443;,
   -0.153716;0.520499;-0.839912;,
   0.150166;0.523119;-0.838926;,
   0.439480;0.504228;-0.743378;,
   0.683768;0.470275;-0.557946;,
   0.848766;0.436403;-0.298577;,
   0.857855;0.408160;0.312234;,
   0.912911;0.408160;0.000000;,
   0.699330;0.408160;0.586807;,
   0.456455;0.408160;0.790604;,
   0.158525;0.408160;0.899042;,
   -0.158525;0.408160;0.899041;,
   -0.456455;0.408160;0.790604;,
   -0.699330;0.408160;0.586808;,
   -0.857855;0.408159;0.312234;,
   -0.912911;0.408160;0.000000;,
   -0.857856;0.408160;-0.312233;,
   -0.699330;0.408160;-0.586808;,
   -0.456456;0.408160;-0.790603;,
   -0.158526;0.408160;-0.899041;,
   0.158525;0.408160;-0.899041;,
   0.456455;0.408160;-0.790604;,
   0.699330;0.408160;-0.586808;,
   0.857856;0.408160;-0.312233;,
   0.856994;0.410203;0.311920;,
   0.911994;0.410203;0.000000;,
   0.698629;0.410203;0.586218;,
   0.455997;0.410203;0.789810;,
   0.158366;0.410203;0.898139;,
   -0.158367;0.410203;0.898139;,
   -0.455997;0.410203;0.789810;,
   -0.698628;0.410203;0.586220;,
   -0.856994;0.410203;0.311920;,
   -0.911994;0.410203;0.000000;,
   -0.856995;0.410203;-0.311920;,
   -0.698628;0.410203;-0.586219;,
   -0.455998;0.410202;-0.789810;,
   -0.158367;0.410203;-0.898139;,
   0.158366;0.410203;-0.898139;,
   0.455997;0.410203;-0.789811;,
   0.698628;0.410203;-0.586219;,
   0.856994;0.410203;-0.311921;,
   0.930892;0.365294;0.000001;,
   0.874753;0.365294;0.318383;,
   0.713105;0.365294;0.598366;,
   0.465445;0.365294;0.806177;,
   0.161648;0.365294;0.916750;,
   -0.161647;0.365294;0.916750;,
   -0.465447;0.365293;0.806176;,
   -0.713105;0.365294;0.598366;,
   -0.874753;0.365294;0.318384;,
   -0.930892;0.365294;0.000000;,
   -0.874753;0.365294;-0.318383;,
   -0.713105;0.365293;-0.598366;,
   -0.465446;0.365294;-0.806176;,
   -0.161648;0.365294;-0.916750;,
   0.161647;0.365294;-0.916750;,
   0.465445;0.365294;-0.806177;,
   0.713104;0.365294;-0.598367;,
   0.874753;0.365294;-0.318384;,
   0.000007;1.000000;0.000002;,
   0.000003;1.000000;0.000001;,
   0.000031;1.000000;0.000026;,
   0.000001;1.000000;-0.000011;,
   0.000014;1.000000;0.000039;,
   -0.000005;1.000000;0.000002;,
   -0.000047;1.000000;0.000066;,
   0.000008;1.000000;0.000001;,
   -0.000038;1.000000;0.000014;,
   0.000004;1.000000;0.000000;,
   0.000096;1.000000;0.000031;,
   -0.000002;1.000000;0.000004;,
   -0.000013;1.000000;-0.000016;,
   -0.000005;1.000000;0.000003;,
   0.000000;1.000000;0.000000;,
   0.000001;1.000000;0.000003;,
   -0.000062;1.000000;0.000052;,
   0.000081;1.000000;0.000000;,
   0.892556;0.312742;0.324863;,
   0.949838;0.312742;0.000001;,
   0.727619;0.312743;0.610543;,
   0.474919;0.312743;0.822584;,
   0.164937;0.312742;0.935408;,
   -0.164937;0.312742;0.935408;,
   -0.474919;0.312743;0.822584;,
   -0.727618;0.312742;0.610544;,
   -0.892556;0.312743;0.324864;,
   -0.949838;0.312742;-0.000000;,
   -0.892556;0.312742;-0.324862;,
   -0.727618;0.312743;-0.610545;,
   -0.474918;0.312742;-0.822585;,
   -0.164939;0.312743;-0.935407;,
   0.164936;0.312742;-0.935408;,
   0.474918;0.312742;-0.822584;,
   0.727618;0.312743;-0.610545;,
   0.892556;0.312743;-0.324863;,
   0.930709;0.137948;0.338750;,
   0.990440;0.137947;0.000000;,
   0.758721;0.137948;0.636642;,
   0.495220;0.137948;0.857746;,
   0.171989;0.137948;0.975392;,
   -0.171986;0.137948;0.975393;,
   -0.495220;0.137948;0.857745;,
   -0.758722;0.137947;0.636641;,
   -0.930708;0.137948;0.338751;,
   -0.990440;0.137948;-0.000000;,
   -0.930709;0.137947;-0.338751;,
   -0.758721;0.137948;-0.636642;,
   -0.495220;0.137947;-0.857746;,
   -0.171990;0.137948;-0.975392;,
   0.171988;0.137948;-0.975393;,
   0.495220;0.137948;-0.857746;,
   0.758721;0.137948;-0.636642;,
   0.930709;0.137948;-0.338751;,
   0.937185;0.073012;0.341106;,
   0.997331;0.073012;-0.000000;,
   0.764000;0.073012;0.641072;,
   0.498665;0.073012;0.863714;,
   0.173186;0.073012;0.982179;,
   -0.173186;0.073012;0.982179;,
   -0.498665;0.073012;0.863714;,
   -0.763998;0.073012;0.641074;,
   -0.937185;0.073012;0.341106;,
   -0.997331;0.073012;-0.000001;,
   -0.937185;0.073012;-0.341106;,
   -0.764000;0.073012;-0.641072;,
   -0.498665;0.073012;-0.863715;,
   -0.173185;0.073012;-0.982179;,
   0.173185;0.073012;-0.982179;,
   0.498664;0.073012;-0.863715;,
   0.764000;0.073012;-0.641072;,
   0.937185;0.073012;-0.341106;,
   0.935731;0.091730;0.340578;,
   0.995784;0.091730;-0.000000;,
   0.762815;0.091730;0.640077;,
   0.497892;0.091731;0.862374;,
   0.172917;0.091730;0.980656;,
   -0.172916;0.091731;0.980656;,
   -0.497892;0.091730;0.862374;,
   -0.762814;0.091731;0.640078;,
   -0.935731;0.091731;0.340577;,
   -0.995784;0.091731;-0.000001;,
   -0.935732;0.091731;-0.340576;,
   -0.762816;0.091731;-0.640076;,
   -0.497891;0.091730;-0.862375;,
   -0.172916;0.091730;-0.980656;,
   0.172915;0.091730;-0.980656;,
   0.497891;0.091730;-0.862375;,
   0.762815;0.091730;-0.640077;,
   0.935731;0.091730;-0.340577;;
   520;
   3;0,1,2;,
   3;1,0,3;,
   3;2,4,5;,
   3;4,2,1;,
   3;5,6,7;,
   3;6,5,4;,
   3;7,8,9;,
   3;8,7,6;,
   3;9,10,11;,
   3;10,9,8;,
   3;11,12,13;,
   3;12,11,10;,
   3;13,14,15;,
   3;14,13,12;,
   3;15,16,17;,
   3;16,15,14;,
   3;17,18,19;,
   3;18,17,16;,
   3;19,20,21;,
   3;20,19,18;,
   3;21,22,23;,
   3;22,21,20;,
   3;23,24,25;,
   3;24,23,22;,
   3;25,26,27;,
   3;26,25,24;,
   3;27,28,29;,
   3;28,27,26;,
   3;29,30,31;,
   3;30,29,28;,
   3;31,32,33;,
   3;32,31,30;,
   3;33,34,35;,
   3;34,33,32;,
   3;35,3,0;,
   3;3,35,34;,
   3;3,36,1;,
   3;36,3,37;,
   3;1,38,4;,
   3;38,1,36;,
   3;4,39,6;,
   3;39,4,38;,
   3;6,40,8;,
   3;40,6,39;,
   3;8,41,10;,
   3;41,8,40;,
   3;10,42,12;,
   3;42,10,41;,
   3;12,43,14;,
   3;43,12,42;,
   3;14,44,16;,
   3;44,14,43;,
   3;16,45,18;,
   3;45,16,44;,
   3;18,46,20;,
   3;46,18,45;,
   3;20,47,22;,
   3;47,20,46;,
   3;22,48,24;,
   3;48,22,47;,
   3;24,49,26;,
   3;49,24,48;,
   3;26,50,28;,
   3;50,26,49;,
   3;28,51,30;,
   3;51,28,50;,
   3;30,52,32;,
   3;52,30,51;,
   3;32,53,34;,
   3;53,32,52;,
   3;34,37,3;,
   3;37,34,53;,
   3;37,54,36;,
   3;54,37,55;,
   3;36,56,38;,
   3;56,36,54;,
   3;38,57,39;,
   3;57,38,56;,
   3;39,58,40;,
   3;58,39,57;,
   3;40,59,41;,
   3;59,40,58;,
   3;41,60,42;,
   3;60,41,59;,
   3;42,61,43;,
   3;61,42,60;,
   3;43,62,44;,
   3;62,43,61;,
   3;44,63,45;,
   3;63,44,62;,
   3;45,64,46;,
   3;64,45,63;,
   3;46,65,47;,
   3;65,46,64;,
   3;47,66,48;,
   3;66,47,65;,
   3;48,67,49;,
   3;67,48,66;,
   3;49,68,50;,
   3;68,49,67;,
   3;50,69,51;,
   3;69,50,68;,
   3;51,70,52;,
   3;70,51,69;,
   3;52,71,53;,
   3;71,52,70;,
   3;53,55,37;,
   3;55,53,71;,
   3;55,72,54;,
   3;72,55,73;,
   3;54,74,56;,
   3;74,54,72;,
   3;56,75,57;,
   3;75,56,74;,
   3;57,76,58;,
   3;76,57,75;,
   3;58,77,59;,
   3;77,58,76;,
   3;59,78,60;,
   3;78,59,77;,
   3;60,79,61;,
   3;79,60,78;,
   3;61,80,62;,
   3;80,61,79;,
   3;62,81,63;,
   3;81,62,80;,
   3;63,82,64;,
   3;82,63,81;,
   3;64,83,65;,
   3;83,64,82;,
   3;65,84,66;,
   3;84,65,83;,
   3;66,85,67;,
   3;85,66,84;,
   3;67,86,68;,
   3;86,67,85;,
   3;68,87,69;,
   3;87,68,86;,
   3;69,88,70;,
   3;88,69,87;,
   3;70,89,71;,
   3;89,70,88;,
   3;71,73,55;,
   3;73,71,89;,
   3;73,90,72;,
   3;90,73,91;,
   3;72,92,74;,
   3;92,72,90;,
   3;74,93,75;,
   3;93,74,92;,
   3;75,94,76;,
   3;94,75,93;,
   3;76,95,77;,
   3;95,76,94;,
   3;77,96,78;,
   3;96,77,95;,
   3;78,97,79;,
   3;97,78,96;,
   3;79,98,80;,
   3;98,79,97;,
   3;80,99,81;,
   3;99,80,98;,
   3;81,100,82;,
   3;100,81,99;,
   3;82,101,83;,
   3;101,82,100;,
   3;83,102,84;,
   3;102,83,101;,
   3;84,103,85;,
   3;103,84,102;,
   3;85,104,86;,
   3;104,85,103;,
   3;86,105,87;,
   3;105,86,104;,
   3;87,106,88;,
   3;106,87,105;,
   3;88,107,89;,
   3;107,88,106;,
   3;89,91,73;,
   3;91,89,107;,
   3;91,108,90;,
   3;108,91,109;,
   3;90,110,92;,
   3;110,90,108;,
   3;92,111,93;,
   3;111,92,110;,
   3;93,112,94;,
   3;112,93,111;,
   3;94,113,95;,
   3;113,94,112;,
   3;95,114,96;,
   3;114,95,113;,
   3;96,115,97;,
   3;115,96,114;,
   3;97,116,98;,
   3;116,97,115;,
   3;98,117,99;,
   3;117,98,116;,
   3;99,118,100;,
   3;118,99,117;,
   3;100,119,101;,
   3;119,100,118;,
   3;101,120,102;,
   3;120,101,119;,
   3;102,121,103;,
   3;121,102,120;,
   3;103,122,104;,
   3;122,103,121;,
   3;104,123,105;,
   3;123,104,122;,
   3;105,124,106;,
   3;124,105,123;,
   3;106,125,107;,
   3;125,106,124;,
   3;107,109,91;,
   3;109,107,125;,
   3;109,126,108;,
   3;126,109,127;,
   3;108,128,110;,
   3;128,108,126;,
   3;110,129,111;,
   3;129,110,128;,
   3;111,130,112;,
   3;130,111,129;,
   3;112,131,113;,
   3;131,112,130;,
   3;113,132,114;,
   3;132,113,131;,
   3;114,133,115;,
   3;133,114,132;,
   3;115,134,116;,
   3;134,115,133;,
   3;116,135,117;,
   3;135,116,134;,
   3;117,136,118;,
   3;136,117,135;,
   3;118,137,119;,
   3;137,118,136;,
   3;119,138,120;,
   3;138,119,137;,
   3;120,139,121;,
   3;139,120,138;,
   3;121,140,122;,
   3;140,121,139;,
   3;122,141,123;,
   3;141,122,140;,
   3;123,142,124;,
   3;142,123,141;,
   3;124,143,125;,
   3;143,124,142;,
   3;125,127,109;,
   3;127,125,143;,
   3;127,144,126;,
   3;144,127,145;,
   3;126,146,128;,
   3;146,126,144;,
   3;128,147,129;,
   3;147,128,146;,
   3;129,148,130;,
   3;148,129,147;,
   3;130,149,131;,
   3;149,130,148;,
   3;131,150,132;,
   3;150,131,149;,
   3;132,151,133;,
   3;151,132,150;,
   3;133,152,134;,
   3;152,133,151;,
   3;134,153,135;,
   3;153,134,152;,
   3;135,154,136;,
   3;154,135,153;,
   3;136,155,137;,
   3;155,136,154;,
   3;137,156,138;,
   3;156,137,155;,
   3;138,157,139;,
   3;157,138,156;,
   3;139,158,140;,
   3;158,139,157;,
   3;140,159,141;,
   3;159,140,158;,
   3;141,160,142;,
   3;160,141,159;,
   3;142,161,143;,
   3;161,142,160;,
   3;143,145,127;,
   3;145,143,161;,
   3;145,162,144;,
   3;162,145,163;,
   3;144,164,146;,
   3;164,144,162;,
   3;146,165,147;,
   3;165,146,164;,
   3;147,166,148;,
   3;166,147,165;,
   3;148,167,149;,
   3;167,148,166;,
   3;149,168,150;,
   3;168,149,167;,
   3;150,169,151;,
   3;169,150,168;,
   3;151,170,152;,
   3;170,151,169;,
   3;152,171,153;,
   3;171,152,170;,
   3;153,172,154;,
   3;172,153,171;,
   3;154,173,155;,
   3;173,154,172;,
   3;155,174,156;,
   3;174,155,173;,
   3;156,175,157;,
   3;175,156,174;,
   3;157,176,158;,
   3;176,157,175;,
   3;158,177,159;,
   3;177,158,176;,
   3;159,178,160;,
   3;178,159,177;,
   3;160,179,161;,
   3;179,160,178;,
   3;161,163,145;,
   3;163,161,179;,
   3;162,180,181;,
   3;180,162,163;,
   3;164,181,182;,
   3;181,164,162;,
   3;165,182,183;,
   3;182,165,164;,
   3;166,183,184;,
   3;183,166,165;,
   3;167,184,185;,
   3;184,167,166;,
   3;168,185,186;,
   3;185,168,167;,
   3;169,186,187;,
   3;186,169,168;,
   3;170,187,188;,
   3;187,170,169;,
   3;171,188,189;,
   3;188,171,170;,
   3;172,189,190;,
   3;189,172,171;,
   3;173,190,191;,
   3;190,173,172;,
   3;174,191,192;,
   3;191,174,173;,
   3;175,192,193;,
   3;192,175,174;,
   3;176,193,194;,
   3;193,176,175;,
   3;177,194,195;,
   3;194,177,176;,
   3;178,195,196;,
   3;195,178,177;,
   3;179,196,197;,
   3;196,179,178;,
   3;163,197,180;,
   3;197,163,179;,
   3;198,199,200;,
   3;199,201,202;,
   3;201,203,204;,
   3;199,203,201;,
   3;203,205,206;,
   3;205,207,208;,
   3;203,207,205;,
   3;207,209,210;,
   3;209,211,212;,
   3;207,211,209;,
   3;203,211,207;,
   3;199,211,203;,
   3;211,213,214;,
   3;199,213,211;,
   3;198,213,199;,
   3;215,213,198;,
   3;216,180,217;,
   3;180,216,181;,
   3;218,181,216;,
   3;181,218,182;,
   3;219,182,218;,
   3;182,219,183;,
   3;220,183,219;,
   3;183,220,184;,
   3;221,184,220;,
   3;184,221,185;,
   3;222,185,221;,
   3;185,222,186;,
   3;223,186,222;,
   3;186,223,187;,
   3;224,187,223;,
   3;187,224,188;,
   3;225,188,224;,
   3;188,225,189;,
   3;226,189,225;,
   3;189,226,190;,
   3;227,190,226;,
   3;190,227,191;,
   3;228,191,227;,
   3;191,228,192;,
   3;229,192,228;,
   3;192,229,193;,
   3;230,193,229;,
   3;193,230,194;,
   3;231,194,230;,
   3;194,231,195;,
   3;232,195,231;,
   3;195,232,196;,
   3;233,196,232;,
   3;196,233,197;,
   3;217,197,233;,
   3;197,217,180;,
   3;234,217,235;,
   3;217,234,216;,
   3;236,216,234;,
   3;216,236,218;,
   3;237,218,236;,
   3;218,237,219;,
   3;238,219,237;,
   3;219,238,220;,
   3;239,220,238;,
   3;220,239,221;,
   3;240,221,239;,
   3;221,240,222;,
   3;241,222,240;,
   3;222,241,223;,
   3;242,223,241;,
   3;223,242,224;,
   3;243,224,242;,
   3;224,243,225;,
   3;244,225,243;,
   3;225,244,226;,
   3;245,226,244;,
   3;226,245,227;,
   3;246,227,245;,
   3;227,246,228;,
   3;247,228,246;,
   3;228,247,229;,
   3;248,229,247;,
   3;229,248,230;,
   3;249,230,248;,
   3;230,249,231;,
   3;250,231,249;,
   3;231,250,232;,
   3;251,232,250;,
   3;232,251,233;,
   3;235,233,251;,
   3;233,235,217;,
   3;252,235,253;,
   3;235,252,234;,
   3;254,234,252;,
   3;234,254,236;,
   3;255,236,254;,
   3;236,255,237;,
   3;256,237,255;,
   3;237,256,238;,
   3;257,238,256;,
   3;238,257,239;,
   3;258,239,257;,
   3;239,258,240;,
   3;259,240,258;,
   3;240,259,241;,
   3;260,241,259;,
   3;241,260,242;,
   3;261,242,260;,
   3;242,261,243;,
   3;262,243,261;,
   3;243,262,244;,
   3;263,244,262;,
   3;244,263,245;,
   3;264,245,263;,
   3;245,264,246;,
   3;265,246,264;,
   3;246,265,247;,
   3;266,247,265;,
   3;247,266,248;,
   3;267,248,266;,
   3;248,267,249;,
   3;268,249,267;,
   3;249,268,250;,
   3;269,250,268;,
   3;250,269,251;,
   3;253,251,269;,
   3;251,253,235;,
   3;270,253,271;,
   3;253,270,252;,
   3;272,252,270;,
   3;252,272,254;,
   3;273,254,272;,
   3;254,273,255;,
   3;274,255,273;,
   3;255,274,256;,
   3;275,256,274;,
   3;256,275,257;,
   3;276,257,275;,
   3;257,276,258;,
   3;277,258,276;,
   3;258,277,259;,
   3;278,259,277;,
   3;259,278,260;,
   3;279,260,278;,
   3;260,279,261;,
   3;280,261,279;,
   3;261,280,262;,
   3;281,262,280;,
   3;262,281,263;,
   3;282,263,281;,
   3;263,282,264;,
   3;283,264,282;,
   3;264,283,265;,
   3;284,265,283;,
   3;265,284,266;,
   3;285,266,284;,
   3;266,285,267;,
   3;286,267,285;,
   3;267,286,268;,
   3;287,268,286;,
   3;268,287,269;,
   3;271,269,287;,
   3;269,271,253;;
  }

  MeshMaterialList  {
   1;
   520;
   0,
   0,
   0,
   0,
   0,
   0,
   0,
   0,
   0,
   0,
   0,
   0,
   0,
   0,
   0,
   0,
   0,
   0,
   0,
   0,
   0,
   0,
   0,
   0,
   0,
   0,
   0,
   0,
   0,
   0,
   0,
   0,
   0,
   0,
   0,
   0,
   0,
   0,
   0,
   0,
   0,
   0,
   0,
   0,
   0,
   0,
   0,
   0,
   0,
   0,
   0,
   0,
   0,
   0,
   0,
   0,
   0,
   0,
   0,
   0,
   0,
   0,
   0,
   0,
   0,
   0,
   0,
   0,
   0,
   0,
   0,
   0,
   0,
   0,
   0,
   0,
   0,
   0,
   0,
   0,
   0,
   0,
   0,
   0,
   0,
   0,
   0,
   0,
   0,
   0,
   0,
   0,
   0,
   0,
   0,
   0,
   0,
   0,
   0,
   0,
   0,
   0,
   0,
   0,
   0,
   0,
   0,
   0,
   0,
   0,
   0,
   0,
   0,
   0,
   0,
   0,
   0,
   0,
   0,
   0,
   0,
   0,
   0,
   0,
   0,
   0,
   0,
   0,
   0,
   0,
   0,
   0,
   0,
   0,
   0,
   0,
   0,
   0,
   0,
   0,
   0,
   0,
   0,
   0,
   0,
   0,
   0,
   0,
   0,
   0,
   0,
   0,
   0,
   0,
   0,
   0,
   0,
   0,
   0,
   0,
   0,
   0,
   0,
   0,
   0,
   0,
   0,
   0,
   0,
   0,
   0,
   0,
   0,
   0,
   0,
   0,
   0,
   0,
   0,
   0,
   0,
   0,
   0,
   0,
   0,
   0,
   0,
   0,
   0,
   0,
   0,
   0,
   0,
   0,
   0,
   0,
   0,
   0,
   0,
   0,
   0,
   0,
   0,
   0,
   0,
   0,
   0,
   0,
   0,
   0,
   0,
   0,
   0,
   0,
   0,
   0,
   0,
   0,
   0,
   0,
   0,
   0,
   0,
   0,
   0,
   0,
   0,
   0,
   0,
   0,
   0,
   0,
   0,
   0,
   0,
   0,
   0,
   0,
   0,
   0,
   0,
   0,
   0,
   0,
   0,
   0,
   0,
   0,
   0,
   0,
   0,
   0,
   0,
   0,
   0,
   0,
   0,
   0,
   0,
   0,
   0,
   0,
   0,
   0,
   0,
   0,
   0,
   0,
   0,
   0,
   0,
   0,
   0,
   0,
   0,
   0,
   0,
   0,
   0,
   0,
   0,
   0,
   0,
   0,
   0,
   0,
   0,
   0,
   0,
   0,
   0,
   0,
   0,
   0,
   0,
   0,
   0,
   0,
   0,
   0,
   0,
   0,
   0,
   0,
   0,
   0,
   0,
   0,
   0,
   0,
   0,
   0,
   0,
   0,
   0,
   0,
   0,
   0,
   0,
   0,
   0,
   0,
   0,
   0,
   0,
   0,
   0,
   0,
   0,
   0,
   0,
   0,
   0,
   0,
   0,
   0,
   0,
   0,
   0,
   0,
   0,
   0,
   0,
   0,
   0,
   0,
   0,
   0,
   0,
   0,
   0,
   0,
   0,
   0,
   0,
   0,
   0,
   0,
   0,
   0,
   0,
   0,
   0,
   0,
   0,
   0,
   0,
   0,
   0,
   0,
   0,
   0,
   0,
   0,
   0,
   0,
   0,
   0,
   0,
   0,
   0,
   0,
   0,
   0,
   0,
   0,
   0,
   0,
   0,
   0,
   0,
   0,
   0,
   0,
   0,
   0,
   0,
   0,
   0,
   0,
   0,
   0,
   0,
   0,
   0,
   0,
   0,
   0,
   0,
   0,
   0,
   0,
   0,
   0,
   0,
   0,
   0,
   0,
   0,
   0,
   0,
   0,
   0,
   0,
   0,
   0,
   0,
   0,
   0,
   0,
   0,
   0,
   0,
   0,
   0,
   0,
   0,
   0,
   0,
   0,
   0,
   0,
   0,
   0,
   0,
   0,
   0,
   0,
   0,
   0,
   0,
   0,
   0,
   0,
   0,
   0,
   0,
   0,
   0,
   0,
   0,
   0,
   0,
   0,
   0,
   0,
   0,
   0,
   0,
   0,
   0,
   0,
   0,
   0,
   0,
   0,
   0,
   0,
   0,
   0,
   0,
   0,
   0,
   0,
   0,
   0,
   0,
   0,
   0,
   0,
   0,
   0,
   0,
   0,
   0,
   0,
   0,
   0,
   0,
   0,
   0,
   0,
   0,
   0,
   0,
   0,
   0,
   0,
   0,
   0,
   0,
   0,
   0,
   0,
   0,
   0,
   0,
   0,
   0,
   0;
   { PDX04_-_Default }
  }

  MeshTextureCoords  {
   303;
   0.760590;0.875250;,
   0.817811;0.837752;,
   0.870218;0.792523;,
   0.916849;0.739954;,
   0.956673;0.680356;,
   0.989217;0.614447;,
   0.047033;0.681264;,
   0.087890;0.741678;,
   0.135541;0.794885;,
   0.189023;0.840327;,
   0.247177;0.877597;,
   0.308762;0.906592;,
   0.372718;0.927353;,
   0.438222;0.939749;,
   0.504466;0.943556;,
   0.570631;0.938832;,
   0.635945;0.925826;,
   0.699596;0.904647;,
   0.752122;0.860333;,
   0.807343;0.823925;,
   0.857846;0.780044;,
   0.902665;0.729080;,
   0.940791;0.671269;,
   0.971862;0.606185;,
   0.063139;0.671905;,
   0.102261;0.730546;,
   0.148020;0.782151;,
   0.199493;0.826256;,
   0.255576;0.862489;,
   0.315075;0.890738;,
   0.376926;0.911000;,
   0.440278;0.923109;,
   0.504351;0.926829;,
   0.568382;0.922216;,
   0.631609;0.909530;,
   0.693187;0.888906;,
   0.741854;0.842363;,
   0.794664;0.807288;,
   0.842872;0.765056;,
   0.885514;0.716073;,
   0.921529;0.660511;,
   0.950080;0.598303;,
   0.082697;0.660794;,
   0.119650;0.717214;,
   0.163121;0.766858;,
   0.212174;0.809330;,
   0.265765;0.844279;,
   0.322747;0.871601;,
   0.382042;0.891256;,
   0.442776;0.903027;,
   0.504201;0.906639;,
   0.565632;0.902148;,
   0.626326;0.889851;,
   0.685401;0.869921;,
   0.728605;0.819347;,
   0.780367;0.784910;,
   0.826938;0.744292;,
   0.866939;0.698284;,
   0.899522;0.647113;,
   0.924401;0.589100;,
   0.104488;0.645062;,
   0.138838;0.698170;,
   0.180642;0.746003;,
   0.228545;0.787738;,
   0.280775;0.822439;,
   0.335470;0.849465;,
   0.391118;0.868533;,
   0.446936;0.879656;,
   0.502891;0.882984;,
   0.559383;0.878651;,
   0.616469;0.866598;,
   0.673373;0.846763;,
   0.717982;0.801112;,
   0.765079;0.769200;,
   0.807591;0.730688;,
   0.844518;0.686136;,
   0.874898;0.636055;,
   0.897346;0.580756;,
   0.129465;0.635978;,
   0.160511;0.686956;,
   0.198249;0.732047;,
   0.241586;0.770630;,
   0.289427;0.802319;,
   0.340654;0.826911;,
   0.394096;0.844333;,
   0.448741;0.854653;,
   0.503942;0.857982;,
   0.559232;0.854399;,
   0.614001;0.843807;,
   0.667284;0.826046;,
   0.704951;0.778840;,
   0.748950;0.748801;,
   0.788577;0.712620;,
   0.822900;0.670879;,
   0.850863;0.624130;,
   0.871307;0.573530;,
   0.153909;0.623711;,
   0.182432;0.671289;,
   0.217335;0.713571;,
   0.257615;0.749841;,
   0.302279;0.779693;,
   0.350253;0.802964;,
   0.400420;0.819601;,
   0.451830;0.829543;,
   0.503834;0.832728;,
   0.555925;0.829225;,
   0.607448;0.819109;,
   0.657468;0.802327;,
   0.685138;0.745155;,
   0.727684;0.716379;,
   0.765191;0.683121;,
   0.796187;0.646387;,
   0.819996;0.606629;,
   0.836631;0.562983;,
   0.184806;0.602873;,
   0.210408;0.644856;,
   0.243286;0.683841;,
   0.282048;0.718625;,
   0.324702;0.747951;,
   0.369183;0.770866;,
   0.413853;0.786877;,
   0.457992;0.796050;,
   0.501971;0.798781;,
   0.546748;0.795241;,
   0.592818;0.785170;,
   0.639502;0.768364;,
   0.665798;0.712559;,
   0.700809;0.688537;,
   0.732081;0.659804;,
   0.758708;0.626775;,
   0.779777;0.590192;,
   0.794368;0.551288;,
   0.225730;0.589199;,
   0.247146;0.626261;,
   0.274158;0.659606;,
   0.305761;0.688534;,
   0.341053;0.712679;,
   0.379287;0.731733;,
   0.419679;0.745378;,
   0.461368;0.753500;,
   0.503621;0.756196;,
   0.545891;0.753509;,
   0.587560;0.745319;,
   0.627808;0.731592;,
   0.645585;0.678234;,
   0.676055;0.657420;,
   0.703153;0.632645;,
   0.726176;0.604359;,
   0.744465;0.573163;,
   0.757500;0.539689;,
   0.261561;0.572004;,
   0.280086;0.603616;,
   0.303365;0.632202;,
   0.330701;0.657184;,
   0.361379;0.678134;,
   0.394708;0.694717;,
   0.429989;0.706678;,
   0.466521;0.713879;,
   0.503647;0.716289;,
   0.540767;0.713900;,
   0.577255;0.706701;,
   0.612427;0.694751;,
   0.621238;0.636723;,
   0.646391;0.619913;,
   0.668726;0.600020;,
   0.687715;0.577483;,
   0.702876;0.552877;,
   0.713789;0.526970;,
   0.303649;0.551537;,
   0.318906;0.576465;,
   0.338014;0.599267;,
   0.360469;0.619370;,
   0.385732;0.636343;,
   0.413244;0.649856;,
   0.442435;0.659669;,
   0.472735;0.665626;,
   0.503581;0.667648;,
   0.534417;0.665707;,
   0.564686;0.659831;,
   0.593816;0.650113;,
   0.505410;0.284321;,
   0.491293;0.286810;,
   0.478879;0.293977;,
   0.469665;0.304958;,
   0.464762;0.318428;,
   0.464762;0.332763;,
   0.469665;0.346233;,
   0.478879;0.357214;,
   0.491293;0.364381;,
   0.505410;0.366871;,
   0.519527;0.364381;,
   0.531941;0.357214;,
   0.541155;0.346233;,
   0.546058;0.332763;,
   0.546058;0.318428;,
   0.541155;0.304958;,
   0.531941;0.293977;,
   0.519527;0.286810;,
   0.387508;0.584053;,
   0.369240;0.568438;,
   0.353581;0.550804;,
   0.340851;0.531553;,
   0.675774;0.512947;,
   0.666203;0.533090;,
   0.653488;0.552057;,
   0.637861;0.569434;,
   0.619636;0.584823;,
   0.599184;0.597876;,
   0.576915;0.608307;,
   0.553267;0.615895;,
   0.528690;0.620484;,
   0.503644;0.621982;,
   0.478592;0.620357;,
   0.453995;0.615634;,
   0.430315;0.607899;,
   0.408005;0.597300;,
   0.425707;0.531044;,
   0.413123;0.522011;,
   0.402079;0.511934;,
   0.392740;0.501109;,
   0.622262;0.491151;,
   0.614720;0.502235;,
   0.605364;0.512906;,
   0.594310;0.522829;,
   0.581722;0.531714;,
   0.567800;0.539313;,
   0.552774;0.545423;,
   0.536901;0.549884;,
   0.520454;0.552582;,
   0.503716;0.553446;,
   0.486979;0.552454;,
   0.470531;0.549627;,
   0.454656;0.545034;,
   0.439630;0.538786;,
   0.456013;0.459116;,
   0.449261;0.455543;,
   0.443052;0.451636;,
   0.570703;0.448039;,
   0.565107;0.452080;,
   0.558933;0.455883;,
   0.552222;0.459370;,
   0.545024;0.462465;,
   0.537402;0.465098;,
   0.529425;0.467211;,
   0.521174;0.468753;,
   0.512734;0.469689;,
   0.504197;0.469995;,
   0.495654;0.469663;,
   0.487199;0.468699;,
   0.478924;0.467122;,
   0.470914;0.464966;,
   0.463253;0.462279;,
   0.471216;0.411706;,
   0.465947;0.410095;,
   0.460777;0.408301;,
   0.553076;0.406899;,
   0.548016;0.408773;,
   0.542859;0.410493;,
   0.537603;0.412037;,
   0.532250;0.413382;,
   0.526808;0.414507;,
   0.521288;0.415397;,
   0.515707;0.416036;,
   0.510082;0.416414;,
   0.504435;0.416525;,
   0.498786;0.416365;,
   0.493156;0.415936;,
   0.487567;0.415245;,
   0.482037;0.414299;,
   0.476583;0.413114;,
   0.013389;0.614447;,
   0.030976;0.605904;,
   0.053098;0.597700;,
   0.078147;0.585664;,
   0.106443;0.579727;,
   0.132916;0.572317;,
   0.166853;0.557833;,
   0.210872;0.549714;,
   0.248340;0.537980;,
   0.292678;0.525269;,
   0.331280;0.511107;,
   0.385224;0.489876;,
   0.437431;0.447469;,
   0.455704;0.406348;,
   0.524313;0.372061;,
   0.520415;0.372748;,
   0.528190;0.371226;,
   0.532044;0.370250;,
   0.535870;0.369138;,
   0.539666;0.367898;,
   0.473489;0.368687;,
   0.469688;0.367391;,
   0.477321;0.369856;,
   0.481180;0.370890;,
   0.485064;0.371782;,
   0.488967;0.372526;,
   0.492886;0.373116;,
   0.496816;0.373549;,
   0.500755;0.373821;,
   0.504697;0.373930;,
   0.508638;0.373876;,
   0.512574;0.373659;,
   0.516501;0.373282;;
  }
 }
}

AnimationSet Anim-1 {
 

 Animation Anim-Cylinder001 {
  
  { Cylinder001 }

  AnimationKey {
   4;
   101;
   0;16;1.000000,0.000000,0.000000,0.000000,0.000000,1.000000,0.000000,0.000000,0.000000,0.000000,1.000000,0.000000,221.486413,0.000000,90.949120,1.000000;;,
   160;16;1.000000,0.000000,0.000000,0.000000,0.000000,1.000000,0.000000,0.000000,0.000000,0.000000,1.000000,0.000000,221.486413,0.000000,90.949120,1.000000;;,
   320;16;1.000000,0.000000,0.000000,0.000000,0.000000,1.000000,0.000000,0.000000,0.000000,0.000000,1.000000,0.000000,221.486413,0.000000,90.949120,1.000000;;,
   480;16;1.000000,0.000000,0.000000,0.000000,0.000000,1.000000,0.000000,0.000000,0.000000,0.000000,1.000000,0.000000,221.486413,0.000000,90.949120,1.000000;;,
   640;16;1.000000,0.000000,0.000000,0.000000,0.000000,1.000000,0.000000,0.000000,0.000000,0.000000,1.000000,0.000000,221.486413,0.000000,90.949120,1.000000;;,
   800;16;1.000000,0.000000,0.000000,0.000000,0.000000,1.000000,0.000000,0.000000,0.000000,0.000000,1.000000,0.000000,221.486413,0.000000,90.949120,1.000000;;,
   960;16;1.000000,0.000000,0.000000,0.000000,0.000000,1.000000,0.000000,0.000000,0.000000,0.000000,1.000000,0.000000,221.486413,0.000000,90.949120,1.000000;;,
   1120;16;1.000000,0.000000,0.000000,0.000000,0.000000,1.000000,0.000000,0.000000,0.000000,0.000000,1.000000,0.000000,221.486413,0.000000,90.949120,1.000000;;,
   1280;16;1.000000,0.000000,0.000000,0.000000,0.000000,1.000000,0.000000,0.000000,0.000000,0.000000,1.000000,0.000000,221.486413,0.000000,90.949120,1.000000;;,
   1440;16;1.000000,0.000000,0.000000,0.000000,0.000000,1.000000,0.000000,0.000000,0.000000,0.000000,1.000000,0.000000,221.486413,0.000000,90.949120,1.000000;;,
   1600;16;1.000000,0.000000,0.000000,0.000000,0.000000,1.000000,0.000000,0.000000,0.000000,0.000000,1.000000,0.000000,221.486413,0.000000,90.949120,1.000000;;,
   1760;16;1.000000,0.000000,0.000000,0.000000,0.000000,1.000000,0.000000,0.000000,0.000000,0.000000,1.000000,0.000000,221.486413,0.000000,90.949120,1.000000;;,
   1920;16;1.000000,0.000000,0.000000,0.000000,0.000000,1.000000,0.000000,0.000000,0.000000,0.000000,1.000000,0.000000,221.486413,0.000000,90.949120,1.000000;;,
   2080;16;1.000000,0.000000,0.000000,0.000000,0.000000,1.000000,0.000000,0.000000,0.000000,0.000000,1.000000,0.000000,221.486413,0.000000,90.949120,1.000000;;,
   2240;16;1.000000,0.000000,0.000000,0.000000,0.000000,1.000000,0.000000,0.000000,0.000000,0.000000,1.000000,0.000000,221.486413,0.000000,90.949120,1.000000;;,
   2400;16;1.000000,0.000000,0.000000,0.000000,0.000000,1.000000,0.000000,0.000000,0.000000,0.000000,1.000000,0.000000,221.486413,0.000000,90.949120,1.000000;;,
   2560;16;1.000000,0.000000,0.000000,0.000000,0.000000,1.000000,0.000000,0.000000,0.000000,0.000000,1.000000,0.000000,221.486413,0.000000,90.949120,1.000000;;,
   2720;16;1.000000,0.000000,0.000000,0.000000,0.000000,1.000000,0.000000,0.000000,0.000000,0.000000,1.000000,0.000000,221.486413,0.000000,90.949120,1.000000;;,
   2880;16;1.000000,0.000000,0.000000,0.000000,0.000000,1.000000,0.000000,0.000000,0.000000,0.000000,1.000000,0.000000,221.486413,0.000000,90.949120,1.000000;;,
   3040;16;1.000000,0.000000,0.000000,0.000000,0.000000,1.000000,0.000000,0.000000,0.000000,0.000000,1.000000,0.000000,221.486413,0.000000,90.949120,1.000000;;,
   3200;16;1.000000,0.000000,0.000000,0.000000,0.000000,1.000000,0.000000,0.000000,0.000000,0.000000,1.000000,0.000000,221.486413,0.000000,90.949120,1.000000;;,
   3360;16;1.000000,0.000000,0.000000,0.000000,0.000000,1.000000,0.000000,0.000000,0.000000,0.000000,1.000000,0.000000,221.486413,0.000000,90.949120,1.000000;;,
   3520;16;1.000000,0.000000,0.000000,0.000000,0.000000,1.000000,0.000000,0.000000,0.000000,0.000000,1.000000,0.000000,221.486413,0.000000,90.949120,1.000000;;,
   3680;16;1.000000,0.000000,0.000000,0.000000,0.000000,1.000000,0.000000,0.000000,0.000000,0.000000,1.000000,0.000000,221.486413,0.000000,90.949120,1.000000;;,
   3840;16;1.000000,0.000000,0.000000,0.000000,0.000000,1.000000,0.000000,0.000000,0.000000,0.000000,1.000000,0.000000,221.486413,0.000000,90.949120,1.000000;;,
   4000;16;1.000000,0.000000,0.000000,0.000000,0.000000,1.000000,0.000000,0.000000,0.000000,0.000000,1.000000,0.000000,221.486413,0.000000,90.949120,1.000000;;,
   4160;16;1.000000,0.000000,0.000000,0.000000,0.000000,1.000000,0.000000,0.000000,0.000000,0.000000,1.000000,0.000000,221.486413,0.000000,90.949120,1.000000;;,
   4320;16;1.000000,0.000000,0.000000,0.000000,0.000000,1.000000,0.000000,0.000000,0.000000,0.000000,1.000000,0.000000,221.486413,0.000000,90.949120,1.000000;;,
   4480;16;1.000000,0.000000,0.000000,0.000000,0.000000,1.000000,0.000000,0.000000,0.000000,0.000000,1.000000,0.000000,221.486413,0.000000,90.949120,1.000000;;,
   4640;16;1.000000,0.000000,0.000000,0.000000,0.000000,1.000000,0.000000,0.000000,0.000000,0.000000,1.000000,0.000000,221.486413,0.000000,90.949120,1.000000;;,
   4800;16;1.000000,0.000000,0.000000,0.000000,0.000000,1.000000,0.000000,0.000000,0.000000,0.000000,1.000000,0.000000,221.486413,0.000000,90.949120,1.000000;;,
   4960;16;1.000000,0.000000,0.000000,0.000000,0.000000,1.000000,0.000000,0.000000,0.000000,0.000000,1.000000,0.000000,221.486413,0.000000,90.949120,1.000000;;,
   5120;16;1.000000,0.000000,0.000000,0.000000,0.000000,1.000000,0.000000,0.000000,0.000000,0.000000,1.000000,0.000000,221.486413,0.000000,90.949120,1.000000;;,
   5280;16;1.000000,0.000000,0.000000,0.000000,0.000000,1.000000,0.000000,0.000000,0.000000,0.000000,1.000000,0.000000,221.486413,0.000000,90.949120,1.000000;;,
   5440;16;1.000000,0.000000,0.000000,0.000000,0.000000,1.000000,0.000000,0.000000,0.000000,0.000000,1.000000,0.000000,221.486413,0.000000,90.949120,1.000000;;,
   5600;16;1.000000,0.000000,0.000000,0.000000,0.000000,1.000000,0.000000,0.000000,0.000000,0.000000,1.000000,0.000000,221.486413,0.000000,90.949120,1.000000;;,
   5760;16;1.000000,0.000000,0.000000,0.000000,0.000000,1.000000,0.000000,0.000000,0.000000,0.000000,1.000000,0.000000,221.486413,0.000000,90.949120,1.000000;;,
   5920;16;1.000000,0.000000,0.000000,0.000000,0.000000,1.000000,0.000000,0.000000,0.000000,0.000000,1.000000,0.000000,221.486413,0.000000,90.949120,1.000000;;,
   6080;16;1.000000,0.000000,0.000000,0.000000,0.000000,1.000000,0.000000,0.000000,0.000000,0.000000,1.000000,0.000000,221.486413,0.000000,90.949120,1.000000;;,
   6240;16;1.000000,0.000000,0.000000,0.000000,0.000000,1.000000,0.000000,0.000000,0.000000,0.000000,1.000000,0.000000,221.486413,0.000000,90.949120,1.000000;;,
   6400;16;1.000000,0.000000,0.000000,0.000000,0.000000,1.000000,0.000000,0.000000,0.000000,0.000000,1.000000,0.000000,221.486413,0.000000,90.949120,1.000000;;,
   6560;16;1.000000,0.000000,0.000000,0.000000,0.000000,1.000000,0.000000,0.000000,0.000000,0.000000,1.000000,0.000000,221.486413,0.000000,90.949120,1.000000;;,
   6720;16;1.000000,0.000000,0.000000,0.000000,0.000000,1.000000,0.000000,0.000000,0.000000,0.000000,1.000000,0.000000,221.486413,0.000000,90.949120,1.000000;;,
   6880;16;1.000000,0.000000,0.000000,0.000000,0.000000,1.000000,0.000000,0.000000,0.000000,0.000000,1.000000,0.000000,221.486413,0.000000,90.949120,1.000000;;,
   7040;16;1.000000,0.000000,0.000000,0.000000,0.000000,1.000000,0.000000,0.000000,0.000000,0.000000,1.000000,0.000000,221.486413,0.000000,90.949120,1.000000;;,
   7200;16;1.000000,0.000000,0.000000,0.000000,0.000000,1.000000,0.000000,0.000000,0.000000,0.000000,1.000000,0.000000,221.486413,0.000000,90.949120,1.000000;;,
   7360;16;1.000000,0.000000,0.000000,0.000000,0.000000,1.000000,0.000000,0.000000,0.000000,0.000000,1.000000,0.000000,221.486413,0.000000,90.949120,1.000000;;,
   7520;16;1.000000,0.000000,0.000000,0.000000,0.000000,1.000000,0.000000,0.000000,0.000000,0.000000,1.000000,0.000000,221.486413,0.000000,90.949120,1.000000;;,
   7680;16;1.000000,0.000000,0.000000,0.000000,0.000000,1.000000,0.000000,0.000000,0.000000,0.000000,1.000000,0.000000,221.486413,0.000000,90.949120,1.000000;;,
   7840;16;1.000000,0.000000,0.000000,0.000000,0.000000,1.000000,0.000000,0.000000,0.000000,0.000000,1.000000,0.000000,221.486413,0.000000,90.949120,1.000000;;,
   8000;16;1.000000,0.000000,0.000000,0.000000,0.000000,1.000000,0.000000,0.000000,0.000000,0.000000,1.000000,0.000000,221.486413,0.000000,90.949120,1.000000;;,
   8160;16;1.000000,0.000000,0.000000,0.000000,0.000000,1.000000,0.000000,0.000000,0.000000,0.000000,1.000000,0.000000,221.486413,0.000000,90.949120,1.000000;;,
   8320;16;1.000000,0.000000,0.000000,0.000000,0.000000,1.000000,0.000000,0.000000,0.000000,0.000000,1.000000,0.000000,221.486413,0.000000,90.949120,1.000000;;,
   8480;16;1.000000,0.000000,0.000000,0.000000,0.000000,1.000000,0.000000,0.000000,0.000000,0.000000,1.000000,0.000000,221.486413,0.000000,90.949120,1.000000;;,
   8640;16;1.000000,0.000000,0.000000,0.000000,0.000000,1.000000,0.000000,0.000000,0.000000,0.000000,1.000000,0.000000,221.486413,0.000000,90.949120,1.000000;;,
   8800;16;1.000000,0.000000,0.000000,0.000000,0.000000,1.000000,0.000000,0.000000,0.000000,0.000000,1.000000,0.000000,221.486413,0.000000,90.949120,1.000000;;,
   8960;16;1.000000,0.000000,0.000000,0.000000,0.000000,1.000000,0.000000,0.000000,0.000000,0.000000,1.000000,0.000000,221.486413,0.000000,90.949120,1.000000;;,
   9120;16;1.000000,0.000000,0.000000,0.000000,0.000000,1.000000,0.000000,0.000000,0.000000,0.000000,1.000000,0.000000,221.486413,0.000000,90.949120,1.000000;;,
   9280;16;1.000000,0.000000,0.000000,0.000000,0.000000,1.000000,0.000000,0.000000,0.000000,0.000000,1.000000,0.000000,221.486413,0.000000,90.949120,1.000000;;,
   9440;16;1.000000,0.000000,0.000000,0.000000,0.000000,1.000000,0.000000,0.000000,0.000000,0.000000,1.000000,0.000000,221.486413,0.000000,90.949120,1.000000;;,
   9600;16;1.000000,0.000000,0.000000,0.000000,0.000000,1.000000,0.000000,0.000000,0.000000,0.000000,1.000000,0.000000,221.486413,0.000000,90.949120,1.000000;;,
   9760;16;1.000000,0.000000,0.000000,0.000000,0.000000,1.000000,0.000000,0.000000,0.000000,0.000000,1.000000,0.000000,221.486413,0.000000,90.949120,1.000000;;,
   9920;16;1.000000,0.000000,0.000000,0.000000,0.000000,1.000000,0.000000,0.000000,0.000000,0.000000,1.000000,0.000000,221.486413,0.000000,90.949120,1.000000;;,
   10080;16;1.000000,0.000000,0.000000,0.000000,0.000000,1.000000,0.000000,0.000000,0.000000,0.000000,1.000000,0.000000,221.486413,0.000000,90.949120,1.000000;;,
   10240;16;1.000000,0.000000,0.000000,0.000000,0.000000,1.000000,0.000000,0.000000,0.000000,0.000000,1.000000,0.000000,221.486413,0.000000,90.949120,1.000000;;,
   10400;16;1.000000,0.000000,0.000000,0.000000,0.000000,1.000000,0.000000,0.000000,0.000000,0.000000,1.000000,0.000000,221.486413,0.000000,90.949120,1.000000;;,
   10560;16;1.000000,0.000000,0.000000,0.000000,0.000000,1.000000,0.000000,0.000000,0.000000,0.000000,1.000000,0.000000,221.486413,0.000000,90.949120,1.000000;;,
   10720;16;1.000000,0.000000,0.000000,0.000000,0.000000,1.000000,0.000000,0.000000,0.000000,0.000000,1.000000,0.000000,221.486413,0.000000,90.949120,1.000000;;,
   10880;16;1.000000,0.000000,0.000000,0.000000,0.000000,1.000000,0.000000,0.000000,0.000000,0.000000,1.000000,0.000000,221.486413,0.000000,90.949120,1.000000;;,
   11040;16;1.000000,0.000000,0.000000,0.000000,0.000000,1.000000,0.000000,0.000000,0.000000,0.000000,1.000000,0.000000,221.486413,0.000000,90.949120,1.000000;;,
   11200;16;1.000000,0.000000,0.000000,0.000000,0.000000,1.000000,0.000000,0.000000,0.000000,0.000000,1.000000,0.000000,221.486413,0.000000,90.949120,1.000000;;,
   11360;16;1.000000,0.000000,0.000000,0.000000,0.000000,1.000000,0.000000,0.000000,0.000000,0.000000,1.000000,0.000000,221.486413,0.000000,90.949120,1.000000;;,
   11520;16;1.000000,0.000000,0.000000,0.000000,0.000000,1.000000,0.000000,0.000000,0.000000,0.000000,1.000000,0.000000,221.486413,0.000000,90.949120,1.000000;;,
   11680;16;1.000000,0.000000,0.000000,0.000000,0.000000,1.000000,0.000000,0.000000,0.000000,0.000000,1.000000,0.000000,221.486413,0.000000,90.949120,1.000000;;,
   11840;16;1.000000,0.000000,0.000000,0.000000,0.000000,1.000000,0.000000,0.000000,0.000000,0.000000,1.000000,0.000000,221.486413,0.000000,90.949120,1.000000;;,
   12000;16;1.000000,0.000000,0.000000,0.000000,0.000000,1.000000,0.000000,0.000000,0.000000,0.000000,1.000000,0.000000,221.486413,0.000000,90.949120,1.000000;;,
   12160;16;1.000000,0.000000,0.000000,0.000000,0.000000,1.000000,0.000000,0.000000,0.000000,0.000000,1.000000,0.000000,221.486413,0.000000,90.949120,1.000000;;,
   12320;16;1.000000,0.000000,0.000000,0.000000,0.000000,1.000000,0.000000,0.000000,0.000000,0.000000,1.000000,0.000000,221.486413,0.000000,90.949120,1.000000;;,
   12480;16;1.000000,0.000000,0.000000,0.000000,0.000000,1.000000,0.000000,0.000000,0.000000,0.000000,1.000000,0.000000,221.486413,0.000000,90.949120,1.000000;;,
   12640;16;1.000000,0.000000,0.000000,0.000000,0.000000,1.000000,0.000000,0.000000,0.000000,0.000000,1.000000,0.000000,221.486413,0.000000,90.949120,1.000000;;,
   12800;16;1.000000,0.000000,0.000000,0.000000,0.000000,1.000000,0.000000,0.000000,0.000000,0.000000,1.000000,0.000000,221.486413,0.000000,90.949120,1.000000;;,
   12960;16;1.000000,0.000000,0.000000,0.000000,0.000000,1.000000,0.000000,0.000000,0.000000,0.000000,1.000000,0.000000,221.486413,0.000000,90.949120,1.000000;;,
   13120;16;1.000000,0.000000,0.000000,0.000000,0.000000,1.000000,0.000000,0.000000,0.000000,0.000000,1.000000,0.000000,221.486413,0.000000,90.949120,1.000000;;,
   13280;16;1.000000,0.000000,0.000000,0.000000,0.000000,1.000000,0.000000,0.000000,0.000000,0.000000,1.000000,0.000000,221.486413,0.000000,90.949120,1.000000;;,
   13440;16;1.000000,0.000000,0.000000,0.000000,0.000000,1.000000,0.000000,0.000000,0.000000,0.000000,1.000000,0.000000,221.486413,0.000000,90.949120,1.000000;;,
   13600;16;1.000000,0.000000,0.000000,0.000000,0.000000,1.000000,0.000000,0.000000,0.000000,0.000000,1.000000,0.000000,221.486413,0.000000,90.949120,1.000000;;,
   13760;16;1.000000,0.000000,0.000000,0.000000,0.000000,1.000000,0.000000,0.000000,0.000000,0.000000,1.000000,0.000000,221.486413,0.000000,90.949120,1.000000;;,
   13920;16;1.000000,0.000000,0.000000,0.000000,0.000000,1.000000,0.000000,0.000000,0.000000,0.000000,1.000000,0.000000,221.486413,0.000000,90.949120,1.000000;;,
   14080;16;1.000000,0.000000,0.000000,0.000000,0.000000,1.000000,0.000000,0.000000,0.000000,0.000000,1.000000,0.000000,221.486413,0.000000,90.949120,1.000000;;,
   14240;16;1.000000,0.000000,0.000000,0.000000,0.000000,1.000000,0.000000,0.000000,0.000000,0.000000,1.000000,0.000000,221.486413,0.000000,90.949120,1.000000;;,
   14400;16;1.000000,0.000000,0.000000,0.000000,0.000000,1.000000,0.000000,0.000000,0.000000,0.000000,1.000000,0.000000,221.486413,0.000000,90.949120,1.000000;;,
   14560;16;1.000000,0.000000,0.000000,0.000000,0.000000,1.000000,0.000000,0.000000,0.000000,0.000000,1.000000,0.000000,221.486413,0.000000,90.949120,1.000000;;,
   14720;16;1.000000,0.000000,0.000000,0.000000,0.000000,1.000000,0.000000,0.000000,0.000000,0.000000,1.000000,0.000000,221.486413,0.000000,90.949120,1.000000;;,
   14880;16;1.000000,0.000000,0.000000,0.000000,0.000000,1.000000,0.000000,0.000000,0.000000,0.000000,1.000000,0.000000,221.486413,0.000000,90.949120,1.000000;;,
   15040;16;1.000000,0.000000,0.000000,0.000000,0.000000,1.000000,0.000000,0.000000,0.000000,0.000000,1.000000,0.000000,221.486413,0.000000,90.949120,1.000000;;,
   15200;16;1.000000,0.000000,0.000000,0.000000,0.000000,1.000000,0.000000,0.000000,0.000000,0.000000,1.000000,0.000000,221.486413,0.000000,90.949120,1.000000;;,
   15360;16;1.000000,0.000000,0.000000,0.000000,0.000000,1.000000,0.000000,0.000000,0.000000,0.000000,1.000000,0.000000,221.486413,0.000000,90.949120,1.000000;;,
   15520;16;1.000000,0.000000,0.000000,0.000000,0.000000,1.000000,0.000000,0.000000,0.000000,0.000000,1.000000,0.000000,221.486413,0.000000,90.949120,1.000000;;,
   15680;16;1.000000,0.000000,0.000000,0.000000,0.000000,1.000000,0.000000,0.000000,0.000000,0.000000,1.000000,0.000000,221.486413,0.000000,90.949120,1.000000;;,
   15840;16;1.000000,0.000000,0.000000,0.000000,0.000000,1.000000,0.000000,0.000000,0.000000,0.000000,1.000000,0.000000,221.486413,0.000000,90.949120,1.000000;;,
   16000;16;1.000000,0.000000,0.000000,0.000000,0.000000,1.000000,0.000000,0.000000,0.000000,0.000000,1.000000,0.000000,221.486413,0.000000,90.949120,1.000000;;;
  }
 }
}